Graph,Nodes,Edges,Degree,Time,FillIn,Time,Degree+Fillin,Time
.\public\instance001.gr,74,144,6,32,5,0,5,15
.\public\instance003.gr,87,174,6,2,5,15,5,0
.\public\instance005.gr,201,253,5,0,5,0,5,16
.\public\instance007.gr,216,288,6,16,5,15,5,0
.\public\instance009.gr,229,312,5,0,5,0,5,16
.\public\instance011.gr,244,337,7,0,6,16,6,15
.\public\instance013.gr,1906,2083,6,16,6,47,6,78
.\public\instance015.gr,114,226,6,0,6,15,6,0
.\public\instance017.gr,210,276,9,0,7,16,7,0
.\public\instance019.gr,231,319,8,0,7,0,7,15
.\public\instance021.gr,247,484,9,0,7,0,7,16
.\public\instance023.gr,990,1258,7,1,7,63,7,31
.\public\instance025.gr,8790,9815,9,125,8,1485,7,1764
.\public\instance027.gr,15,35,7,0,7,0,7,0
.\public\instance029.gr,197,250,8,16,8,15,8,0
.\public\instance031.gr,269,399,9,0,8,0,8,16
.\public\instance033.gr,480,670,9,0,8,23,8,15
.\public\instance035.gr,543,727,8,16,8,15,7,16
.\public\instance037.gr,1172,1627,10,16,10,78,9,125
.\public\instance039.gr,1912,2223,8,15,8,94,8,94
.\public\instance041.gr,2382,2674,9,16,8,63,8,62
.\public\instance043.gr,246,468,12,15,11,0,11,16
.\public\instance045.gr,389,562,11,0,9,16,9,15
.\public\instance047.gr,585,799,10,16,9,16,8,15
.\public\instance049.gr,623,876,12,0,9,31,9,31
.\public\instance051.gr,1416,1978,11,16,10,125,9,139
.\public\instance053.gr,181,289,13,0,11,0,10,16
.\public\instance055.gr,233,431,14,0,11,7,10,32
.\public\instance057.gr,245,454,14,0,13,16,11,31
.\public\instance059.gr,560,870,11,16,11,47,11,46
.\public\instance061.gr,528,1017,14,0,12,78,12,110
.\public\instance063.gr,1214,1700,11,15,9,93,10,110
.\public\instance065.gr,2856,3641,12,16,12,297,11,305
.\public\instance067.gr,200,370,18,0,15,16,13,15
.\public\instance069.gr,200,370,18,0,15,16,13,16
.\public\instance071.gr,339,522,12,0,12,16,12,16
.\public\instance073.gr,262,731,11,16,11,47,11,31
.\public\instance075.gr,557,1080,14,0,12,62,12,94
.\public\instance077.gr,2413,3412,15,15,13,250,15,282
.\public\instance081.gr,237,378,14,0,15,0,13,16
.\public\instance083.gr,311,632,15,0,14,31,14,32
.\public\instance085.gr,1274,1808,15,0,12,141,11,141
.\public\instance087.gr,1337,1933,12,15,11,140,11,157
.\public\instance089.gr,5829,7552,13,78,12,1648,11,1578
.\public\instance091.gr,304,571,16,0,16,31,17,16
.\public\instance093.gr,1001,1419,14,16,13,62,12,78
.\public\instance095.gr,1335,1932,14,0,13,181,13,187
.\public\instance097.gr,2629,3793,13,16,12,632,12,650
.\public\instance099.gr,1294,1853,17,16,14,141,12,140
.\public\instance101.gr,2778,4083,17,31,14,743,12,805
.\public\instance103.gr,1055,1473,16,0,14,93,13,110
.\public\instance105.gr,1408,2056,15,0,14,203,14,234
.\public\instance107.gr,160,240,16,0,16,16,16,0
.\public\instance109.gr,257,515,18,0,15,16,15,31
.\public\instance111.gr,2763,4038,20,31,17,728,17,811
.\public\instance113.gr,80,160,17,15,16,0,16,0
.\public\instance115.gr,243,497,17,16,16,31,16,16
.\public\instance117.gr,398,788,17,0,15,47,15,47
.\public\instance119.gr,678,1030,18,0,17,78,15,78
.\public\instance121.gr,1005,1731,20,15,16,312,16,337
.\public\instance123.gr,2762,4047,18,32,17,783,16,811
.\public\instance125.gr,160,240,18,0,18,15,18,0
.\public\instance127.gr,294,568,19,0,18,39,19,31
.\public\instance129.gr,323,592,19,0,18,32,16,31
.\public\instance131.gr,499,861,20,0,17,95,17,78
.\public\instance133.gr,766,1535,18,0,19,187,17,219
.\public\instance135.gr,2532,3615,21,16,19,562,19,584
.\public\instance137.gr,2676,3894,24,16,19,680,18,749
.\public\instance139.gr,2984,4484,20,16,18,1061,18,1182
.\public\instance141.gr,294,618,19,0,19,47,19,47
.\public\instance143.gr,388,815,20,0,18,93,19,93
.\public\instance145.gr,437,838,21,0,20,85,19,94
.\public\instance147.gr,564,1112,20,16,18,109,17,125
.\public\instance149.gr,615,1232,24,0,19,140,21,156
.\public\instance151.gr,314,650,20,0,18,63,18,47
.\public\instance153.gr,670,1316,23,0,19,375,21,368
.\public\instance155.gr,770,1383,22,0,19,295,21,314
.\public\instance157.gr,938,1869,23,0,18,371,19,395
.\public\instance159.gr,2865,4267,23,16,20,939,17,1031
.\public\instance161.gr,2502,6191,24,32,23,4752,20,4899
.\public\instance163.gr,402,780,20,15,21,78,20,94
.\public\instance165.gr,422,808,22,0,18,94,20,83
.\public\instance167.gr,632,1087,21,0,18,124,20,117
.\public\instance169.gr,720,1269,22,0,19,203,19,219
.\public\instance171.gr,802,1553,21,0,21,203,21,211
.\public\instance173.gr,788,1906,21,15,21,438,21,453
.\public\instance175.gr,2397,3715,29,16,21,1132,21,1196
.\public\instance177.gr,904,1806,25,0,21,507,24,533
.\public\instance179.gr,752,1264,23,15,23,203,21,188
.\public\instance181.gr,757,1493,30,21,22,250,22,260
.\public\instance183.gr,838,1763,26,15,22,659,24,712
.\public\instance185.gr,2834,4207,28,16,25,958,23,1064
.\public\instance187.gr,529,1032,23,16,21,125,23,130
.\public\instance189.gr,467,896,24,0,27,94,25,110
.\public\instance191.gr,5096,8105,31,93,26,5767,25,6156
.\public\instance193.gr,1848,3286,29,16,26,1961,26,1991
.\public\instance195.gr,1724,2975,33,15,28,1341,26,1456
.\public\instance197.gr,6128,15237,36,119,28,45495,27,46814
.\public\instance199.gr,1011,2010,40,16,36,1443,36,1533
